F
F
F
F
D-
F
F
F
F
F
F
F
F
F
F
F
F
F
F
F
D-
D-
F
F
D+
F
F
F
F
F
F
F
F
F
F
F
F
F
F
F
F
F
F
F
F
F
F
D-
F
F
F
C-
F
F
F
F
F
F
F
F
D+
D-
F
F
F
B-
F
F
F
F
F
F
F
F
D-
F
F
F
F
F
F
F
F
F
F
F
D-
D-
F
F
D+
F
F
F
F
F
F
F
D+
D+
F
F
F
F
F
F
F
F
D-
F
F
F
F
F
F
F
F
F
F
F
F
F
F
F
F
F
F
D-
F
F
F
F
F
F
F
F
F
F
F
F
F
F
F
D-
F
F
F
F
F
F
F
F
F
F
F
F
D-
F
F
F
F
F
F
F
F
F
F
F
F
F
D-
F
F
F
F
D+
D-
F
D+
F
F
F
F
F
F
F
F
F
F
F
F
F
F
F
F
F
F
F
F
F
F
F
F
F
D-
F
F
F
F
F
F
F
D
F
F
F
F
F
F
F
F
F
F
F
F
F
F
F
F
F
F
F
F
F
F
F
F
F
F
F
F
F
F
F
F
F
F
