C+
B-
F
F
F
F
F
F
D
F
F
F
F
F
F
F
F
D-
F
F
F
F
D-
F
F
D-
F
F
F
F
F
F
F
F
F
F
F
F
F
F
F
F
F
F
F
F
F
F
F
F
D-
F
F
F
F
F
D+
F
F
D-
F
F
F
F
F
F
F
F
F
F
F
F
F
F
F
D-
F
F
F
F
F
F
F
F
F
F
D-
F
F
F
F
F
F
F
D-
F
F
F
F
F
F
F
F
F
F
F
F
F
F
F
F
F
F
F
F
F
F
F
F
F
F
D-
F
F
F
F
F
A
F
F
F
F
F
F
F
F
F
F
F
F
F
F
F
F
D-
F
F
D-
F
F
F
F
F
F
F
F
F
F
F
F
F
F
F
F
F
F
F
F
F
F
F
F
F
F
F
F
F
F
F
F
F
F
F
F
F
F
F
F
F
F
F
F
F
F
D-
F
F
F
D-
D-
F
F
F
F
F
F
F
F
F
F
F
F
F
F
F
F
F
F
F
D+
F
F
F
F
F
F
F
D-
F
F
F
F
F
F
F
D-
F
F
F
F
F
F
F
F
F
F
F
F
B-
A-
